{
  "DatabaseSettings": {
    "DBProvider": "mssql",
    "ConnectionString": "Server=.\\SQLEXPRESS;Database=Futbol;Integrated Security=SSPI;Persist Security Info=False;User ID=sa;Initial Catalog=Futbol"
  }
}